output.vcd
$version Generated by simsys.py $end
$date Sunday, 26 Jul 2020 at 21:16:54 $end
$timescale 1ns $end
$scope module SYSTEM $end
	$scope module scl0 $end
		$var wire 1 W0 scl0_Q $end
	$upscope $end
	$scope module clr0 $end
		$var wire 1 W1 clr0_P $end
		$var wire 1 W2 clr0_Q $end
	$upscope $end
	$scope module cnt0 $end
		$var wire 1 W3 cnt0_trg $end
		$var wire 1 W4 cnt0_clr $end
		$var wire 4 W5 cnt0_Q[3:0] $end
	$upscope $end
$upscope $end
$enddefinitions $end
#0 0W0 1W1 0W2 0W3 0W4 b0011 W5 
#1 b0000 W5 
#5 1W0 1W4 
#10 0W1 1W2 1W3 
#11 b0001 W5 
#20 1W1 0W2 0W3 
#30 0W1 1W2 1W3 
#31 b0010 W5 
#40 1W1 0W2 0W3 
#50 0W1 1W2 1W3 
#51 b0011 W5 
#60 1W1 0W2 0W3 
#70 0W1 1W2 1W3 
#71 b0100 W5 
#80 1W1 0W2 0W3 
#90 0W1 1W2 1W3 
#91 b0101 W5 
#100 1W1 0W2 0W3 
#110 0W1 1W2 1W3 
#111 b0110 W5 
#120 1W1 0W2 0W3 
#130 0W1 1W2 1W3 
#131 b0111 W5 
#140 1W1 0W2 0W3 
#150 0W1 1W2 1W3 
#151 b1000 W5 
#160 1W1 0W2 0W3 
#170 0W1 1W2 1W3 
#171 b1001 W5 
#180 1W1 0W2 0W3 
#190 0W1 1W2 1W3 
#191 b1010 W5 
#200 1W1 0W2 0W3 
#210 0W1 1W2 1W3 
#211 b1011 W5 
#220 1W1 0W2 0W3 
#230 0W1 1W2 1W3 
#231 b1100 W5 
#240 1W1 0W2 0W3 
