output_dev.vcd
$version Generated by simsys.py $end
$date Saturday, 13 Mar 2021 at 20:34:07 $end
$timescale 1ns $end
$scope module SYSTEM $end
	$scope module Clock $end
		$var wire 1 W0 Clock_Q $end
	$upscope $end
	$scope module Reset $end
		$var wire 1 W1 Reset_Q $end
	$upscope $end
	$scope module Counter $end
		$var wire 1 W2 Counter_trg $end
		$var wire 1 W3 Counter_clr $end
		$var wire 4 W4 Counter_Q[3:0] $end
	$upscope $end
	$scope module NAND $end
		$var wire 2 W5 NAND_A0[1:0] $end
		$var wire 1 W6 NAND_Q $end
	$upscope $end
	$scope module ROM $end
		$var wire 4 W7 ROM_A0[3:0] $end
		$var wire 8 W8 ROM_Q[7:0] $end
	$upscope $end
$upscope $end
$enddefinitions $end
#0000 0W0 0W1 0W2 0W3 b0100 W4 b00 W5 1W6 b0100 W7 b11111111 W8 
#0001 b0000 W4 b0000 W7 b10111011 W8 
#0002 b11111111 W8 
#0010 1W0 1W2 
#0020 0W0 0W2 
#0030 1W0 1W2 
#0035 1W1 1W3 
#0040 0W0 0W2 
#0050 1W0 1W2 
#0051 b0001 W4 b01 W5 b0001 W7 
#0052 b11101110 W8 
#0060 0W0 0W2 
#0070 1W0 1W2 
#0071 b0010 W4 b10 W5 b0010 W7 
#0072 b11011101 W8 
#0080 0W0 0W2 
#0090 1W0 1W2 
#0091 b0011 W4 b11 W5 b0011 W7 
#0092 0W6 b11001100 W8 
#0100 0W0 0W2 
#0110 1W0 1W2 
#0111 b0100 W4 b00 W5 b0100 W7 
#0112 1W6 b10111011 W8 
#0120 0W0 0W2 
#0130 1W0 1W2 
#0131 b0101 W4 b01 W5 b0101 W7 
#0132 b10101010 W8 
#0140 0W0 0W2 
#0150 1W0 1W2 
#0151 b0110 W4 b10 W5 b0110 W7 
#0152 b10011001 W8 
#0160 0W0 0W2 
#0170 1W0 1W2 
#0171 b0111 W4 b11 W5 b0111 W7 
#0172 0W6 b10001000 W8 
#0180 0W0 0W2 
#0190 1W0 1W2 
#0191 b1000 W4 b00 W5 b1000 W7 
#0192 1W6 b01110111 W8 
#0200 0W0 0W2 
#0210 1W0 1W2 
#0211 b1001 W4 b01 W5 b1001 W7 
#0212 b01100110 W8 
#0220 0W0 0W2 
#0230 1W0 1W2 
#0231 b1010 W4 b10 W5 b1010 W7 
#0232 b01010101 W8 
#0240 0W0 0W2 
#0250 1W0 1W2 
#0251 b1011 W4 b11 W5 b1011 W7 
#0252 0W6 b01000100 W8 
#0260 0W0 0W2 
#0270 1W0 1W2 
#0271 b1100 W4 b00 W5 b1100 W7 
#0272 1W6 b00110011 W8 
#0280 0W0 0W2 
#0290 1W0 1W2 
#0291 b1101 W4 b01 W5 b1101 W7 
#0292 b00100010 W8 
#0300 0W0 0W2 
#0310 1W0 1W2 
#0311 b1110 W4 b10 W5 b1110 W7 
#0312 b00010001 W8 
#0320 0W0 0W2 
#0330 1W0 1W2 
#0331 b1111 W4 b11 W5 b1111 W7 
#0332 0W6 bUUUUUUUU W8 
#0340 0W0 0W2 
#0350 1W0 1W2 
#0351 b0000 W4 b00 W5 b0000 W7 
#0352 1W6 b11111111 W8 
#0360 0W0 0W2 
#0370 1W0 1W2 
#0371 b0001 W4 b01 W5 b0001 W7 
#0372 b11101110 W8 
#0380 0W0 0W2 
#0390 1W0 1W2 
#0391 b0010 W4 b10 W5 b0010 W7 
#0392 b11011101 W8 
#0400 0W0 0W2 
#0410 1W0 1W2 
#0411 b0011 W4 b11 W5 b0011 W7 
#0412 0W6 b11001100 W8 
#0420 0W0 0W2 
#0430 1W0 1W2 
#0431 b0100 W4 b00 W5 b0100 W7 
#0432 1W6 b10111011 W8 
#0440 0W0 0W2 
#0450 1W0 1W2 
#0451 b0101 W4 b01 W5 b0101 W7 
#0452 b10101010 W8 
#0460 0W0 0W2 
#0470 1W0 1W2 
#0471 b0110 W4 b10 W5 b0110 W7 
#0472 b10011001 W8 
#0480 0W0 0W2 
#0490 1W0 1W2 
#0491 b0111 W4 b11 W5 b0111 W7 
#0492 0W6 b10001000 W8 
