output.vcd
$version Generated by simsys.py $end
$date Thursday, 17 Sep 2020 at 00:15:04 $end
$timescale 1ns $end
$scope module SYSTEM $end
	$scope module rst0 $end
		$var wire 1 W0 rst0_Q $end
	$upscope $end
	$scope module clk0 $end
		$var wire 1 W1 clk0_P $end
		$var wire 1 W2 clk0_Q $end
	$upscope $end
	$scope module clk1 $end
		$var wire 1 W3 clk1_P $end
		$var wire 1 W4 clk1_Q $end
	$upscope $end
	$scope module cnt0 $end
		$var wire 1 W5 cnt0_trg $end
		$var wire 1 W6 cnt0_clr $end
		$var wire 4 W7 cnt0_Q[3:0] $end
	$upscope $end
	$scope module lut0 $end
		$var wire 1 W8 lut0_I0 $end
		$var wire 1 W9 lut0_I1 $end
		$var wire 1 W10 lut0_Q $end
	$upscope $end
$upscope $end
$enddefinitions $end
#0 0W0 1W1 0W2 1W3 0W4 0W5 0W6 b0000 W7 0W8 0W9 XW10 
#1 1W10 
#5 0W1 1W2 1W8 
#6 0W10 
#10 1W1 0W2 0W3 1W4 1W5 0W8 1W9 
#15 0W1 1W2 1W8 
#16 1W10 
#20 1W1 0W2 1W3 0W4 0W5 0W8 0W9 
#25 0W1 1W2 1W8 
#26 0W10 
#30 1W1 0W2 0W3 1W4 1W5 0W8 1W9 
#35 1W0 0W1 1W2 1W6 1W8 
#36 1W10 
#40 1W1 0W2 1W3 0W4 0W5 0W8 0W9 
#45 0W1 1W2 1W8 
#46 0W10 
#50 1W1 0W2 0W3 1W4 1W5 0W8 1W9 
#51 b0001 W7 
#55 0W1 1W2 1W8 
#56 1W10 
#60 1W1 0W2 1W3 0W4 0W5 0W8 0W9 
#65 0W1 1W2 1W8 
#66 0W10 
#70 1W1 0W2 0W3 1W4 1W5 0W8 1W9 
#71 b0010 W7 
#75 0W1 1W2 1W8 
#76 1W10 
#80 1W1 0W2 1W3 0W4 0W5 0W8 0W9 
#85 0W1 1W2 1W8 
#86 0W10 
#90 1W1 0W2 0W3 1W4 1W5 0W8 1W9 
#91 b0011 W7 
#95 0W1 1W2 1W8 
#96 1W10 
#100 1W1 0W2 1W3 0W4 0W5 0W8 0W9 
#105 0W1 1W2 1W8 
#106 0W10 
#110 1W1 0W2 0W3 1W4 1W5 0W8 1W9 
#111 b0100 W7 
#115 0W1 1W2 1W8 
#116 1W10 
#120 1W1 0W2 1W3 0W4 0W5 0W8 0W9 
#125 0W1 1W2 1W8 
#126 0W10 
#130 1W1 0W2 0W3 1W4 1W5 0W8 1W9 
#131 b0101 W7 
#135 0W1 1W2 1W8 
#136 1W10 
#140 1W1 0W2 1W3 0W4 0W5 0W8 0W9 
#145 0W1 1W2 1W8 
#146 0W10 
#150 1W1 0W2 0W3 1W4 1W5 0W8 1W9 
#151 b0110 W7 
#155 0W1 1W2 1W8 
#156 1W10 
#160 1W1 0W2 1W3 0W4 0W5 0W8 0W9 
#165 0W1 1W2 1W8 
#166 0W10 
#170 1W1 0W2 0W3 1W4 1W5 0W8 1W9 
#171 b0111 W7 
#175 0W1 1W2 1W8 
#176 1W10 
#180 1W1 0W2 1W3 0W4 0W5 0W8 0W9 
#185 0W1 1W2 1W8 
#186 0W10 
#190 1W1 0W2 0W3 1W4 1W5 0W8 1W9 
#191 b1000 W7 
#195 0W1 1W2 1W8 
#196 1W10 
#200 1W1 0W2 1W3 0W4 0W5 0W8 0W9 
#205 0W1 1W2 1W8 
#206 0W10 
#210 1W1 0W2 0W3 1W4 1W5 0W8 1W9 
#211 b1001 W7 
#215 0W1 1W2 1W8 
#216 1W10 
#220 1W1 0W2 1W3 0W4 0W5 0W8 0W9 
#225 0W1 1W2 1W8 
#226 0W10 
#230 1W1 0W2 0W3 1W4 1W5 0W8 1W9 
#231 b1010 W7 
#235 0W1 1W2 1W8 
#236 1W10 
#240 1W1 0W2 1W3 0W4 0W5 0W8 0W9 
#245 0W1 1W2 1W8 
#246 0W10 
#250 1W1 0W2 0W3 1W4 1W5 0W8 1W9 
#251 b1011 W7 
#255 0W1 1W2 1W8 
#256 1W10 
#260 1W1 0W2 1W3 0W4 0W5 0W8 0W9 
#265 0W1 1W2 1W8 
#266 0W10 
#270 1W1 0W2 0W3 1W4 1W5 0W8 1W9 
#271 b1100 W7 
#275 0W1 1W2 1W8 
#276 1W10 
#280 1W1 0W2 1W3 0W4 0W5 0W8 0W9 
#285 0W1 1W2 1W8 
#286 0W10 
#290 1W1 0W2 0W3 1W4 1W5 0W8 1W9 
#291 b1101 W7 
#295 0W1 1W2 1W8 
#296 1W10 
#300 1W1 0W2 1W3 0W4 0W5 0W8 0W9 
#305 0W1 1W2 1W8 
#306 0W10 
#310 1W1 0W2 0W3 1W4 1W5 0W8 1W9 
#311 b1110 W7 
#315 0W1 1W2 1W8 
#316 1W10 
#320 1W1 0W2 1W3 0W4 0W5 0W8 0W9 
#325 0W1 1W2 1W8 
#326 0W10 
#330 1W1 0W2 0W3 1W4 1W5 0W8 1W9 
#331 b1111 W7 
#335 0W1 1W2 1W8 
#336 1W10 
#340 1W1 0W2 1W3 0W4 0W5 0W8 0W9 
#345 0W1 1W2 1W8 
#346 0W10 
#350 1W1 0W2 0W3 1W4 1W5 0W8 1W9 
#351 b0000 W7 
#355 0W1 1W2 1W8 
#356 1W10 
#360 1W1 0W2 1W3 0W4 0W5 0W8 0W9 
#365 0W1 1W2 1W8 
#366 0W10 
#370 1W1 0W2 0W3 1W4 1W5 0W8 1W9 
#371 b0001 W7 
#375 0W1 1W2 1W8 
#376 1W10 
#380 1W1 0W2 1W3 0W4 0W5 0W8 0W9 
#385 0W1 1W2 1W8 
#386 0W10 
#390 1W1 0W2 0W3 1W4 1W5 0W8 1W9 
#391 b0010 W7 
#395 0W1 1W2 1W8 
#396 1W10 
#400 1W1 0W2 1W3 0W4 0W5 0W8 0W9 
#405 0W1 1W2 1W8 
#406 0W10 
#410 1W1 0W2 0W3 1W4 1W5 0W8 1W9 
#411 b0011 W7 
#415 0W1 1W2 1W8 
#416 1W10 
#420 1W1 0W2 1W3 0W4 0W5 0W8 0W9 
#425 0W1 1W2 1W8 
#426 0W10 
#430 1W1 0W2 0W3 1W4 1W5 0W8 1W9 
#431 b0100 W7 
#435 0W1 1W2 1W8 
#436 1W10 
#440 1W1 0W2 1W3 0W4 0W5 0W8 0W9 
#445 0W1 1W2 1W8 
#446 0W10 
#450 1W1 0W2 0W3 1W4 1W5 0W8 1W9 
#451 b0101 W7 
#455 0W1 1W2 1W8 
#456 1W10 
#460 1W1 0W2 1W3 0W4 0W5 0W8 0W9 
#465 0W1 1W2 1W8 
#466 0W10 
#470 1W1 0W2 0W3 1W4 1W5 0W8 1W9 
#471 b0110 W7 
#475 0W1 1W2 1W8 
#476 1W10 
#480 1W1 0W2 1W3 0W4 0W5 0W8 0W9 
#485 0W1 1W2 1W8 
#486 0W10 
#490 1W1 0W2 0W3 1W4 1W5 0W8 1W9 
#491 b0111 W7 
#495 0W1 1W2 1W8 
#496 1W10 
